
  GET INITIAL VALUES FROM BEST SUB-MODEL
  initial a:  -2.374  4.820  0.000 
 dmlnL = -0.005555 -0.003171
  DIAGONALIZING:. (1.09) . (1.06) . (1.05) 

  gradients: 1  mlnL: 260.042439  gradsize: 2.763955
  RAW MOVESIZE/(B): 2.641772
  NEW MOVESIZE/(B): 0.100000  ALPHA:  -2.374 4.820 0.100
  CONVERGENCE TESTING
   movesize:tolerance  2.641772::0.001000
   gradsize:tolerance  2.763955::0.010000
   deltaE:|tolerance|  20.000000::0.000100
 dmlnL = 12.411111 7.138370
  DAMPED BFGS HESSIAN UPDATE p.541 NOCEDAL & WRIGHT
    SECANT  H.dx: 0.00 0.00 0.10  theta: 1.000
  DIAGONALIZING:. (426.42) . (1.07) . (0.14) 

  gradients: 2  mlnL: 260.045027  gradsize: 14.576919
  RAW MOVESIZE/(B): 18.260780
  NEW MOVESIZE/(B): 0.100000  ALPHA:  -2.405 4.801 0.193
  CONVERGENCE TESTING
   movesize:tolerance  18.260780::0.001000
   gradsize:tolerance  14.576919::0.010000
   deltaE:|tolerance|  20.000000::0.000100
 dmlnL = 11.062821 6.928199
  DAMPED BFGS HESSIAN UPDATE p.541 NOCEDAL & WRIGHT
    SECANT  H.dx: -0.07 -0.04 -0.01  theta: 1.000
  DIAGONALIZING:. (457.36) . (9.84) . (0.42) 

  gradients: 3  mlnL: 259.806868  gradsize: 13.329137
  RAW MOVESIZE/(B): 4.742242
  NEW MOVESIZE/(B): 0.100000  ALPHA:  -2.400 4.735 0.268
  CONVERGENCE TESTING
   movesize:tolerance  4.742242::0.001000
   gradsize:tolerance  13.329137::0.010000
   deltaE:|tolerance|  20.000000::0.000100
 dmlnL = 10.843499 6.716202
  DAMPED BFGS HESSIAN UPDATE p.541 NOCEDAL & WRIGHT
    SECANT  H.dx: -0.23 -0.15 -0.06  theta: 1.000
  DIAGONALIZING:. (450.59) . (10.08) . (0.78) 

  gradients: 4  mlnL: 259.603469  gradsize: 13.023808
  RAW MOVESIZE/(B): 2.474543
  NEW MOVESIZE/(B): 0.100000  ALPHA:  -2.399 4.672 0.345
  CONVERGENCE TESTING
   movesize:tolerance  2.474543::0.001000
   gradsize:tolerance  13.023808::0.010000
   deltaE:|tolerance|  20.000000::0.000100
 dmlnL = 10.391960 6.438801
  DAMPED BFGS HESSIAN UPDATE p.541 NOCEDAL & WRIGHT
    SECANT  H.dx: -0.44 -0.27 -0.11  theta: 1.000
  DIAGONALIZING:. (452.32) . (10.08) . (0.78) 

  gradients: 5  mlnL: 259.399482  gradsize: 12.482467
  RAW MOVESIZE/(B): 2.367212
  NEW MOVESIZE/(B): 0.100000  ALPHA:  -2.398 4.609 0.423
  CONVERGENCE TESTING
   movesize:tolerance  2.367212::0.001000
   gradsize:tolerance  12.482467::0.010000
   deltaE:|tolerance|  20.000000::0.000100
 dmlnL = 9.950512 6.163662
  DAMPED BFGS HESSIAN UPDATE p.541 NOCEDAL & WRIGHT
    SECANT  H.dx: -0.44 -0.27 -0.11  theta: 1.000
  DIAGONALIZING:. (452.79) . (10.08) . (0.78) 

  gradients: 6  mlnL: 259.204376  gradsize: 11.951028
  RAW MOVESIZE/(B): 2.263688
  NEW MOVESIZE/(B): 0.100000  ALPHA:  -2.397 4.546 0.501
  CONVERGENCE TESTING
   movesize:tolerance  2.263688::0.001000
   gradsize:tolerance  11.951028::0.010000
   deltaE:|tolerance|  20.000000::0.000100
 dmlnL = 9.507915 5.888105
  DAMPED BFGS HESSIAN UPDATE p.541 NOCEDAL & WRIGHT
    SECANT  H.dx: -0.44 -0.27 -0.11  theta: 1.000
  DIAGONALIZING:. (453.33) . (10.07) . (0.78) 

  gradients: 7  mlnL: 259.017738  gradsize: 11.418383
  RAW MOVESIZE/(B): 2.160735
  NEW MOVESIZE/(B): 0.100000  ALPHA:  -2.396 4.483 0.579
  CONVERGENCE TESTING
   movesize:tolerance  2.160735::0.001000
   gradsize:tolerance  11.418383::0.010000
   deltaE:|tolerance|  20.000000::0.000100
 dmlnL = 9.064875 5.612337
  DAMPED BFGS HESSIAN UPDATE p.541 NOCEDAL & WRIGHT
    SECANT  H.dx: -0.44 -0.27 -0.11  theta: 1.000
  DIAGONALIZING:. (453.87) . (10.07) . (0.78) 

  gradients: 8  mlnL: 258.839599  gradsize: 10.885255
  RAW MOVESIZE/(B): 2.058116
  NEW MOVESIZE/(B): 0.100000  ALPHA:  -2.395 4.420 0.656
  CONVERGENCE TESTING
   movesize:tolerance  2.058116::0.001000
   gradsize:tolerance  10.885255::0.010000
   deltaE:|tolerance|  20.000000::0.000100
 dmlnL = 8.621408 5.336383
  DAMPED BFGS HESSIAN UPDATE p.541 NOCEDAL & WRIGHT
    SECANT  H.dx: -0.44 -0.27 -0.11  theta: 1.000
  DIAGONALIZING:. (454.42) . (10.06) . (0.78) 

  gradients: 9  mlnL: 258.669966  gradsize: 10.351671
  RAW MOVESIZE/(B): 1.955822
  NEW MOVESIZE/(B): 0.100000  ALPHA:  -2.395 4.358 0.735
  CONVERGENCE TESTING
   movesize:tolerance  1.955822::0.001000
   gradsize:tolerance  10.351671::0.010000
   deltaE:|tolerance|  20.000000::0.000100
 dmlnL = 8.177566 5.060279
  DAMPED BFGS HESSIAN UPDATE p.541 NOCEDAL & WRIGHT
    SECANT  H.dx: -0.44 -0.27 -0.11  theta: 1.000
  DIAGONALIZING:. (454.97) . (10.05) . (0.78) 

  gradients: 10  mlnL: 258.508843  gradsize: 9.817698
  RAW MOVESIZE/(B): 1.853835
  NEW MOVESIZE/(B): 0.100000  ALPHA:  -2.394 4.295 0.813
  CONVERGENCE TESTING
   movesize:tolerance  1.853835::0.001000
   gradsize:tolerance  9.817698::0.010000
   deltaE:|tolerance|  20.000000::0.000100
 dmlnL = 7.733404 4.784062
  DAMPED BFGS HESSIAN UPDATE p.541 NOCEDAL & WRIGHT
    SECANT  H.dx: -0.44 -0.27 -0.11  theta: 1.000
  DIAGONALIZING:. (455.53) . (10.05) . (0.78) 

  gradients: 11  mlnL: 258.356235  gradsize: 9.283403
  RAW MOVESIZE/(B): 1.752135
  NEW MOVESIZE/(B): 0.100000  ALPHA:  -2.393 4.233 0.891
  CONVERGENCE TESTING
   movesize:tolerance  1.752135::0.001000
   gradsize:tolerance  9.283403::0.010000
   deltaE:|tolerance|  20.000000::0.000100
 dmlnL = 7.288975 4.507769
  DAMPED BFGS HESSIAN UPDATE p.541 NOCEDAL & WRIGHT
    SECANT  H.dx: -0.44 -0.27 -0.11  theta: 1.000
  DIAGONALIZING:. (456.09) . (10.04) . (0.78) 

  gradients: 12  mlnL: 258.212146  gradsize: 8.748854
  RAW MOVESIZE/(B): 1.650702
  NEW MOVESIZE/(B): 0.100000  ALPHA:  -2.393 4.171 0.969
  CONVERGENCE TESTING
   movesize:tolerance  1.650702::0.001000
   gradsize:tolerance  8.748854::0.010000
   deltaE:|tolerance|  20.000000::0.000100
 dmlnL = 6.844336 4.231440
  DAMPED BFGS HESSIAN UPDATE p.541 NOCEDAL & WRIGHT
    SECANT  H.dx: -0.44 -0.27 -0.11  theta: 1.000
  DIAGONALIZING:. (456.65) . (10.03) . (0.78) 

  gradients: 13  mlnL: 258.076578  gradsize: 8.214123
  RAW MOVESIZE/(B): 1.549516
  NEW MOVESIZE/(B): 0.100000  ALPHA:  -2.393 4.109 1.048
  CONVERGENCE TESTING
   movesize:tolerance  1.549516::0.001000
   gradsize:tolerance  8.214123::0.010000
   deltaE:|tolerance|  20.000000::0.000100
 dmlnL = 6.399546 3.955115
  DAMPED BFGS HESSIAN UPDATE p.541 NOCEDAL & WRIGHT
    SECANT  H.dx: -0.44 -0.27 -0.11  theta: 1.000
  DIAGONALIZING:. (457.22) . (10.03) . (0.79) 

  gradients: 14  mlnL: 257.949533  gradsize: 7.679283
  RAW MOVESIZE/(B): 1.448560
  NEW MOVESIZE/(B): 0.100000  ALPHA:  -2.393 4.047 1.126
  CONVERGENCE TESTING
   movesize:tolerance  1.448560::0.001000
   gradsize:tolerance  7.679283::0.010000
   deltaE:|tolerance|  20.000000::0.000100
 dmlnL = 5.954665 3.678838
  DAMPED BFGS HESSIAN UPDATE p.541 NOCEDAL & WRIGHT
    SECANT  H.dx: -0.44 -0.27 -0.11  theta: 1.000
  DIAGONALIZING:. (457.79) . (10.02) . (0.79) 

  gradients: 15  mlnL: 257.831010  gradsize: 7.144411
  RAW MOVESIZE/(B): 1.347812
  NEW MOVESIZE/(B): 0.100000  ALPHA:  -2.392 3.985 1.205
  CONVERGENCE TESTING
   movesize:tolerance  1.347812::0.001000
   gradsize:tolerance  7.144411::0.010000
   deltaE:|tolerance|  20.000000::0.000100
 dmlnL = 5.509756 3.402654
  DAMPED BFGS HESSIAN UPDATE p.541 NOCEDAL & WRIGHT
    SECANT  H.dx: -0.44 -0.27 -0.11  theta: 1.000
  DIAGONALIZING:. (458.37) . (10.02) . (0.79) 

  gradients: 16  mlnL: 257.721009  gradsize: 6.609589
  RAW MOVESIZE/(B): 1.247255
  NEW MOVESIZE/(B): 0.100000  ALPHA:  -2.392 3.923 1.283
  CONVERGENCE TESTING
   movesize:tolerance  1.247255::0.001000
   gradsize:tolerance  6.609589::0.010000
   deltaE:|tolerance|  20.000000::0.000100
 dmlnL = 5.064886 3.126612
  DAMPED BFGS HESSIAN UPDATE p.541 NOCEDAL & WRIGHT
    SECANT  H.dx: -0.44 -0.27 -0.11  theta: 1.000
  DIAGONALIZING:. (458.95) . (10.01) . (0.79) 

  gradients: 17  mlnL: 257.619528  gradsize: 6.074902
  RAW MOVESIZE/(B): 1.146868
  NEW MOVESIZE/(B): 0.100000  ALPHA:  -2.392 3.862 1.362
  CONVERGENCE TESTING
   movesize:tolerance  1.146868::0.001000
   gradsize:tolerance  6.074902::0.010000
   deltaE:|tolerance|  20.000000::0.000100
 dmlnL = 4.620126 2.850763
  DAMPED BFGS HESSIAN UPDATE p.541 NOCEDAL & WRIGHT
    SECANT  H.dx: -0.44 -0.27 -0.11  theta: 1.000
  DIAGONALIZING:. (459.53) . (10.00) . (0.79) 

  gradients: 18  mlnL: 257.526564  gradsize: 5.540443
  RAW MOVESIZE/(B): 1.046632
  NEW MOVESIZE/(B): 0.100000  ALPHA:  -2.393 3.800 1.441
  CONVERGENCE TESTING
   movesize:tolerance  1.046632::0.001000
   gradsize:tolerance  5.540443::0.010000
   deltaE:|tolerance|  20.000000::0.000100
 dmlnL = 4.175552 2.575165
  DAMPED BFGS HESSIAN UPDATE p.541 NOCEDAL & WRIGHT
    SECANT  H.dx: -0.44 -0.27 -0.11  theta: 1.000
  DIAGONALIZING:. (460.12) . (10.00) . (0.79) 

  gradients: 19  mlnL: 257.442112  gradsize: 5.006310
  RAW MOVESIZE/(B): 0.946527
  NEW MOVESIZE/(B): 0.100000  ALPHA:  -2.393 3.739 1.520
  CONVERGENCE TESTING
   movesize:tolerance  0.946527::0.001000
   gradsize:tolerance  5.006310::0.010000
   deltaE:|tolerance|  20.000000::0.000100
 dmlnL = 3.731246 2.299882
  DAMPED BFGS HESSIAN UPDATE p.541 NOCEDAL & WRIGHT
    SECANT  H.dx: -0.44 -0.27 -0.11  theta: 1.000
  DIAGONALIZING:. (460.72) . (9.99) . (0.78) 

  gradients: 20  mlnL: 257.366168  gradsize: 4.472612
  RAW MOVESIZE/(B): 0.846533
  NEW MOVESIZE/(B): 0.100000  ALPHA:  -2.393 3.678 1.599
  CONVERGENCE TESTING
   movesize:tolerance  0.846533::0.001000
   gradsize:tolerance  4.472612::0.010000
   deltaE:|tolerance|  20.000000::0.000100
 dmlnL = 3.287302 2.024983
  DAMPED BFGS HESSIAN UPDATE p.541 NOCEDAL & WRIGHT
    SECANT  H.dx: -0.44 -0.27 -0.11  theta: 1.000
  DIAGONALIZING:. (461.31) . (9.99) . (0.78) 

  gradients: 21  mlnL: 257.298724  gradsize: 3.939471
  RAW MOVESIZE/(B): 0.746631
  NEW MOVESIZE/(B): 0.100000  ALPHA:  -2.394 3.616 1.678
  CONVERGENCE TESTING
   movesize:tolerance  0.746631::0.001000
   gradsize:tolerance  3.939471::0.010000
   deltaE:|tolerance|  20.000000::0.000100
 dmlnL = 2.843822 1.750554
  DAMPED BFGS HESSIAN UPDATE p.541 NOCEDAL & WRIGHT
    SECANT  H.dx: -0.44 -0.27 -0.10  theta: 1.000
  DIAGONALIZING:. (461.92) . (9.98) . (0.78) 

  gradients: 22  mlnL: 257.239773  gradsize: 3.407029
  RAW MOVESIZE/(B): 0.646800
  NEW MOVESIZE/(B): 0.100000  ALPHA:  -2.394 3.555 1.757
  CONVERGENCE TESTING
   movesize:tolerance  0.646800::0.001000
   gradsize:tolerance  3.407029::0.010000
   deltaE:|tolerance|  20.000000::0.000100
 dmlnL = 2.400930 1.476693
  DAMPED BFGS HESSIAN UPDATE p.541 NOCEDAL & WRIGHT
    SECANT  H.dx: -0.44 -0.27 -0.10  theta: 1.000
  DIAGONALIZING:. (462.53) . (9.97) . (0.78) 

  gradients: 23  mlnL: 257.189305  gradsize: 2.875450
  RAW MOVESIZE/(B): 0.547019
  NEW MOVESIZE/(B): 0.100000  ALPHA:  -2.395 3.495 1.837
  CONVERGENCE TESTING
   movesize:tolerance  0.547019::0.001000
   gradsize:tolerance  2.875450::0.010000
   deltaE:|tolerance|  20.000000::0.000100
 dmlnL = 1.958776 1.203528
  DAMPED BFGS HESSIAN UPDATE p.541 NOCEDAL & WRIGHT
    SECANT  H.dx: -0.44 -0.27 -0.10  theta: 1.000
  DIAGONALIZING:. (463.14) . (9.97) . (0.78) 

  gradients: 24  mlnL: 257.147312  gradsize: 2.344943
  RAW MOVESIZE/(B): 0.447268
  NEW MOVESIZE/(B): 0.100000  ALPHA:  -2.395 3.434 1.916
  CONVERGENCE TESTING
   movesize:tolerance  0.447268::0.001000
   gradsize:tolerance  2.344943::0.010000
   deltaE:|tolerance|  20.000000::0.000100
 dmlnL = 1.517558 0.931227
  DAMPED BFGS HESSIAN UPDATE p.541 NOCEDAL & WRIGHT
    SECANT  H.dx: -0.44 -0.27 -0.10  theta: 1.000
  DIAGONALIZING:. (463.76) . (9.96) . (0.78) 

  gradients: 25  mlnL: 257.113780  gradsize: 1.815782
  RAW MOVESIZE/(B): 0.347526
  NEW MOVESIZE/(B): 0.100000  ALPHA:  -2.396 3.373 1.996
  CONVERGENCE TESTING
   movesize:tolerance  0.347526::0.001000
   gradsize:tolerance  1.815782::0.010000
   deltaE:|tolerance|  20.000000::0.000100
 dmlnL = 1.077558 0.660041
  DAMPED BFGS HESSIAN UPDATE p.541 NOCEDAL & WRIGHT
    SECANT  H.dx: -0.44 -0.27 -0.10  theta: 1.000
  DIAGONALIZING:. (464.39) . (9.96) . (0.78) 

  gradients: 26  mlnL: 257.088696  gradsize: 1.288367
  RAW MOVESIZE/(B): 0.247771
  NEW MOVESIZE/(B): 0.100000  ALPHA:  -2.397 3.313 2.075
  CONVERGENCE TESTING
   movesize:tolerance  0.247771::0.001000
   gradsize:tolerance  1.288367::0.010000
   deltaE:|tolerance|  20.000000::0.000100
 dmlnL = 0.639249 0.390397
  DAMPED BFGS HESSIAN UPDATE p.541 NOCEDAL & WRIGHT
    SECANT  H.dx: -0.43 -0.27 -0.10  theta: 1.000
  DIAGONALIZING:. (465.04) . (9.95) . (0.78) 

  gradients: 27  mlnL: 257.072045  gradsize: 0.763372
  RAW MOVESIZE/(B): 0.147981
  NEW MOVESIZE/(B): 0.100000  ALPHA:  -2.398 3.252 2.155
  CONVERGENCE TESTING
   movesize:tolerance  0.147981::0.001000
   gradsize:tolerance  0.763372::0.010000
   deltaE:|tolerance|  20.000000::0.000100
 dmlnL = 0.203674 0.123257
  DAMPED BFGS HESSIAN UPDATE p.541 NOCEDAL & WRIGHT
    SECANT  H.dx: -0.43 -0.26 -0.10  theta: 1.000
  DIAGONALIZING:. (465.71) . (9.94) . (0.78) 

  gradients: 28  mlnL: 257.063810  gradsize: 0.242306
  RAW MOVESIZE/(B): 0.048134
  NEW MOVESIZE/(B): 0.048134  ALPHA:  -2.399 3.224 2.194
  CONVERGENCE TESTING
   movesize:tolerance  0.048134::0.001000
   gradsize:tolerance  0.242306::0.010000
   deltaE:|tolerance|  20.000000::0.000100
 dmlnL = -0.001877 -0.001449
  DAMPED BFGS HESSIAN UPDATE p.541 NOCEDAL & WRIGHT
    SECANT  H.dx: -0.20 -0.12 -0.05  theta: 1.000
  DIAGONALIZING:. (466.37) . (9.94) . (0.78) 

  gradients: 29  mlnL: 257.062839  gradsize: 0.002633
  RAW MOVESIZE/(B): 0.000072
  NEW MOVESIZE/(B): 0.000072  ALPHA:  -2.399 3.224 2.194
  CONVERGENCE TESTING
   movesize:tolerance  0.000072::0.001000
   gradsize:tolerance  0.002633::0.010000
   deltaE:|tolerance|  20.000000::0.000100
  CONVERGED 
